%!PS-Adobe-3.0 EPSF-3.0
%%Creator: cairo 1.14.6 (http://cairographics.org)
%%CreationDate: Sun Oct 16 11:42:32 2016
%%Pages: 1
%%DocumentData: Clean7Bit
%%LanguageLevel: 2
%%BoundingBox: 0 -1 324 378
%%EndComments
%%BeginProlog
save
50 dict begin
/q { gsave } bind def
/Q { grestore } bind def
/cm { 6 array astore concat } bind def
/w { setlinewidth } bind def
/J { setlinecap } bind def
/j { setlinejoin } bind def
/M { setmiterlimit } bind def
/d { setdash } bind def
/m { moveto } bind def
/l { lineto } bind def
/c { curveto } bind def
/h { closepath } bind def
/re { exch dup neg 3 1 roll 5 3 roll moveto 0 rlineto
      0 exch rlineto 0 rlineto closepath } bind def
/S { stroke } bind def
/f { fill } bind def
/f* { eofill } bind def
/n { newpath } bind def
/W { clip } bind def
/W* { eoclip } bind def
/BT { } bind def
/ET { } bind def
/pdfmark where { pop globaldict /?pdfmark /exec load put }
    { globaldict begin /?pdfmark /pop load def /pdfmark
    /cleartomark load def end } ifelse
/BDC { mark 3 1 roll /BDC pdfmark } bind def
/EMC { mark /EMC pdfmark } bind def
/cairo_store_point { /cairo_point_y exch def /cairo_point_x exch def } def
/Tj { show currentpoint cairo_store_point } bind def
/TJ {
  {
    dup
    type /stringtype eq
    { show } { -0.001 mul 0 cairo_font_matrix dtransform rmoveto } ifelse
  } forall
  currentpoint cairo_store_point
} bind def
/cairo_selectfont { cairo_font_matrix aload pop pop pop 0 0 6 array astore
    cairo_font exch selectfont cairo_point_x cairo_point_y moveto } bind def
/Tf { pop /cairo_font exch def /cairo_font_matrix where
      { pop cairo_selectfont } if } bind def
/Td { matrix translate cairo_font_matrix matrix concatmatrix dup
      /cairo_font_matrix exch def dup 4 get exch 5 get cairo_store_point
      /cairo_font where { pop cairo_selectfont } if } bind def
/Tm { 2 copy 8 2 roll 6 array astore /cairo_font_matrix exch def
      cairo_store_point /cairo_font where { pop cairo_selectfont } if } bind def
/g { setgray } bind def
/rg { setrgbcolor } bind def
/d1 { setcachedevice } bind def
%%EndProlog
%%BeginSetup
%%EndSetup
%%Page: 1 1
%%BeginPageSetup
%%PageBoundingBox: 0 -1 324 378
%%EndPageSetup
q 0 -1 324 379 rectclip q
0.898039 0.0980392 0.219608 rg
154.5 16.949 m 77.852 59.25 29.25 103.574 16.875 142.5 c 15.227 147.676
 14.699 151.199 14.176 161.25 c 13.199 178.352 13.648 364.199 14.625 365.176
 c 15.148 365.699 16.574 365.625 19.125 364.801 c 27.449 362.25 52.051 356.25
 63 354.074 c 130.352 340.727 199.801 341.25 267 355.574 c 276.75 357.676
 293.852 361.949 301.273 364.199 c 304.727 365.25 307.801 365.852 308.25
 365.625 c 308.699 365.324 309 359.102 309 349.426 c 309 333.824 309 333.676
 307.352 333 c 306.375 332.625 300.75 331.5 294.75 330.449 c 229.352 319.051
 169.426 319.125 109.875 330.824 c 87.898 335.102 58.199 344.023 40.199 
351.676 c 35.25 353.773 31.051 355.352 30.898 355.199 c 30.523 354.75 46.051
 345.602 54.074 341.551 c 95.25 320.926 156 305.699 217.875 300.602 c 233.176
 299.398 278.477 299.398 294.148 300.676 c 301.051 301.199 307.199 301.5
 307.875 301.199 c 308.926 300.824 309 293.324 308.852 226.352 c 308.625
 152.477 308.625 151.801 306.977 146.102 c 303.523 133.949 297.977 123.148
 288.375 110.176 c 282.148 101.625 271.051 90.148 270 91.199 c 269.477 91.727
 269.176 121.352 269.102 183.75 c 268.875 275.625 l 256.875 276.148 l 201.227
 278.625 147.602 289.273 103.648 306.449 c 92.699 310.727 68.551 322.5 59.625
 327.977 c 49.426 334.125 38.926 341.625 30.523 348.676 c 22.949 354.977
 l 28.875 348 l 50.699 322.574 83.625 299.398 120.523 283.574 c 152.25 270.074
 185.852 261.449 227.625 256.273 c 235.125 255.375 l 235.352 157.727 l 235.5
 60.074 l 231.75 57.074 l 227.398 53.625 205.352 38.773 200.176 35.773 c
 198.301 34.648 196.5 33.977 196.273 34.273 c 195.977 34.5 195.75 80.25 
195.75 135.824 c 195.75 237 l 194.102 237.301 l 193.125 237.523 188.176 
238.352 183 239.324 c 150.375 245.023 114.148 260.25 85.727 280.199 c 62.324
 296.625 40.875 319.051 26.176 342.375 c 20.176 351.977 19.648 352.574 22.199
 346.875 c 40.875 304.426 75.977 266.926 122.398 239.773 c 130.051 235.273
 146.551 226.875 156.227 222.449 c 162 219.824 l 161.852 117.227 l 161.625
 26.699 161.477 14.625 160.5 14.477 c 159.898 14.324 157.199 15.449 154.5
 16.949 c h
154.5 16.949 m f
1 0.996078 0.996078 rg
0 188.625 m 0 377.25 l 324 377.25 l 324 0 l 0 0 l h
160.5 117.449 m 160.5 218.324 l 154.727 220.949 l 126.227 233.852 103.5
 247.801 82.273 265.352 c 72.75 273.148 56.324 289.801 48.75 299.25 c 36.602
 314.398 25.125 333.898 18.676 350.25 c 16.5 355.648 16.125 356.324 15.676
 354.75 c 14.926 352.051 15 173.324 15.75 160.875 c 16.426 148.727 18.301
 141.75 23.773 130.875 c 40.5 97.648 84.676 58.875 144.75 24.898 c 150.75
 21.449 156.449 18.227 157.5 17.625 c 158.551 17.023 159.602 16.5 159.977
 16.5 c 160.273 16.5 160.5 61.949 160.5 117.449 c h
208.051 43.199 m 213.449 46.727 221.477 52.273 225.898 55.426 c 234 61.125
 l 233.773 157.5 l 233.625 253.875 l 226.125 254.773 l 192.898 258.898 167.926
 264.449 141.602 273.449 c 99.75 287.852 65.176 308.477 38.176 335.25 c 
33.375 339.977 28.051 345.523 26.324 347.625 c 23.176 351.375 l 26.773 345.375
 l 37.125 327.977 54.523 308.102 72.75 292.801 c 103.125 267.227 147.977
 246.676 187.125 240.301 c 191.699 239.551 195.824 238.648 196.352 238.273
 c 197.023 237.676 197.25 216.602 197.25 137.176 c 197.25 81.898 197.477
 36.75 197.699 36.75 c 198 36.75 202.648 39.676 208.051 43.199 c h
287.102 111.977 m 296.398 124.648 302.023 135.523 305.477 147.602 c 307.051
 153.301 307.125 154.051 307.352 226.051 c 307.426 268.648 307.273 299.023
 306.898 299.398 c 306.449 299.852 301.801 299.699 295.426 299.176 c 281.102
 297.898 231.148 297.898 216 299.102 c 185.102 301.648 158.477 306.074 126.676
 313.875 c 87.824 323.551 59.25 334.875 33.227 350.926 c 27.074 354.75 26.398
 355.051 28.875 352.801 c 33.977 348.148 43.5 340.949 51.75 335.477 c 101.477
 302.176 176.102 281.324 258.375 277.648 c 270.375 277.125 l 270.602 185.25
 l 270.824 93.375 l 276.824 99.75 l 280.125 103.273 284.699 108.75 287.102
 111.977 c h
235.5 324.75 m 250.426 325.875 260.102 326.852 271.875 328.574 c 286.125
 330.523 303.75 333.676 305.852 334.5 c 307.5 335.176 307.5 335.398 307.5
 349.5 c 307.5 357.375 307.199 363.75 306.824 363.75 c 306.449 363.75 304.051
 363.074 301.426 362.324 c 295.273 360.449 277.727 356.023 268.5 354.074
 c 236.25 347.176 206.625 343.801 171.375 342.977 c 125.926 342 80.625 347.102
 37.199 358.051 c 30.227 359.852 25.125 360.824 25.875 360.301 c 28.574 
358.273 51 349.199 63.75 345 c 115.426 327.676 177 320.477 235.5 324.75 
c h
235.5 324.75 m f
Q Q
showpage
%%Trailer
end restore
%%EOF
