%!PS-Adobe-3.0 EPSF-3.0
%%Creator: cairo 1.14.6 (http://cairographics.org)
%%CreationDate: Sun Oct 16 11:43:43 2016
%%Pages: 1
%%DocumentData: Clean7Bit
%%LanguageLevel: 2
%%BoundingBox: 0 -1 1059 460
%%EndComments
%%BeginProlog
save
50 dict begin
/q { gsave } bind def
/Q { grestore } bind def
/cm { 6 array astore concat } bind def
/w { setlinewidth } bind def
/J { setlinecap } bind def
/j { setlinejoin } bind def
/M { setmiterlimit } bind def
/d { setdash } bind def
/m { moveto } bind def
/l { lineto } bind def
/c { curveto } bind def
/h { closepath } bind def
/re { exch dup neg 3 1 roll 5 3 roll moveto 0 rlineto
      0 exch rlineto 0 rlineto closepath } bind def
/S { stroke } bind def
/f { fill } bind def
/f* { eofill } bind def
/n { newpath } bind def
/W { clip } bind def
/W* { eoclip } bind def
/BT { } bind def
/ET { } bind def
/pdfmark where { pop globaldict /?pdfmark /exec load put }
    { globaldict begin /?pdfmark /pop load def /pdfmark
    /cleartomark load def end } ifelse
/BDC { mark 3 1 roll /BDC pdfmark } bind def
/EMC { mark /EMC pdfmark } bind def
/cairo_store_point { /cairo_point_y exch def /cairo_point_x exch def } def
/Tj { show currentpoint cairo_store_point } bind def
/TJ {
  {
    dup
    type /stringtype eq
    { show } { -0.001 mul 0 cairo_font_matrix dtransform rmoveto } ifelse
  } forall
  currentpoint cairo_store_point
} bind def
/cairo_selectfont { cairo_font_matrix aload pop pop pop 0 0 6 array astore
    cairo_font exch selectfont cairo_point_x cairo_point_y moveto } bind def
/Tf { pop /cairo_font exch def /cairo_font_matrix where
      { pop cairo_selectfont } if } bind def
/Td { matrix translate cairo_font_matrix matrix concatmatrix dup
      /cairo_font_matrix exch def dup 4 get exch 5 get cairo_store_point
      /cairo_font where { pop cairo_selectfont } if } bind def
/Tm { 2 copy 8 2 roll 6 array astore /cairo_font_matrix exch def
      cairo_store_point /cairo_font where { pop cairo_selectfont } if } bind def
/g { setgray } bind def
/rg { setrgbcolor } bind def
/d1 { setcachedevice } bind def
%%EndProlog
%%BeginSetup
%%EndSetup
%%Page: 1 1
%%BeginPageSetup
%%PageBoundingBox: 0 -1 1059 460
%%EndPageSetup
q 0 -1 1059 461 rectclip q
0.00784314 0.341176 0.592157 rg
509.852 62.625 m 504.977 64.199 500.102 69.676 498.449 75.602 c 496.125
 84 497.551 95.324 501.676 101.102 c 507.148 108.824 521.176 109.949 527.102
 103.125 c 529.352 100.574 531.301 95.625 530.551 94.352 c 530.324 94.051
 528.227 93.75 525.75 93.75 c 521.773 93.75 521.398 93.898 520.949 95.551
 c 519.824 100.125 514.051 101.324 510.449 97.727 c 506.324 93.602 504.977
 81.148 508.051 75.148 c 510.898 69.676 518.625 68.023 524.926 71.625 c 
526.648 72.676 528.301 73.5 528.523 73.5 c 528.676 73.5 528.75 71.551 528.602
 69.148 c 528.375 65.023 528.301 64.801 525.523 63.449 c 521.699 61.574 
514.352 61.199 509.852 62.625 c h
509.852 62.625 m f
575.773 62.551 m 573.824 63.074 572.023 63.676 571.801 63.898 c 571.574
 64.125 571.5 66.227 571.648 68.551 c 571.875 72.75 l 574.875 70.727 l 578.625
 68.176 584.852 67.426 586.727 69.375 c 589.727 72.301 587.926 75.148 580.352
 79.426 c 572.551 83.773 569.852 87.977 571.125 93.602 c 571.727 96.375 
575.023 99.602 578.324 100.5 c 581.176 101.324 588.148 101.477 591.676 100.801
 c 593.926 100.352 594 100.199 594 96.375 c 594 92.398 l 590.477 93.449 
l 584.176 95.398 579.75 94.727 579.75 91.875 c 579.75 89.852 582.227 87.676
 588.75 84 c 594.977 80.551 596.625 78.074 596.625 72.523 c 596.625 68.398
 596.477 67.949 593.852 65.625 c 589.5 61.574 583.273 60.523 575.773 62.551
 c h
575.773 62.551 m f
600.75 62.023 m 600.75 62.398 603.523 71.102 606.977 81.375 c 613.273 100.125
 l 617.398 100.352 l 620.102 100.5 621.75 100.199 622.273 99.602 c 622.949
 98.773 635.25 63.602 635.25 62.551 c 635.25 62.398 633.375 62.25 631.125
 62.25 c 627.074 62.25 l 625.648 66.898 l 624.148 71.625 l 617.926 71.852
 l 611.625 72.074 l 610.125 66.977 l 608.625 61.875 l 604.648 61.648 l 602.551
 61.5 600.75 61.727 600.75 62.023 c h
622.5 78.523 m 622.5 79.648 618.602 91.875 618.074 92.477 c 617.773 92.773
 616.727 90.227 615.824 86.852 c 614.926 83.398 614.023 80.023 613.801 79.273
 c 613.426 78.148 613.949 78 617.926 78 c 620.477 78 622.5 78.227 622.5 
78.523 c h
622.5 78.523 m f
659.324 64.273 m 658.949 65.852 658.273 68.852 657.75 71.023 c 656.625 
76.051 655.727 77.176 652.273 77.773 c 649.5 78.227 l 649.5 62.25 l 641.25
 62.25 l 641.25 100.5 l 649.875 100.5 l 659.324 100.5 661.648 99.824 664.426
 96.301 c 665.625 94.801 666 93.227 666 90.227 c 666 86.551 665.699 85.801
 663.449 83.551 c 662.023 82.125 661.199 81 661.574 81 c 662.926 81 664.727
 77.102 666.074 71.102 c 668.176 61.574 668.176 61.5 663.75 61.5 c 660.074
 61.5 660.074 61.5 659.324 64.273 c h
655.273 84.074 m 657.977 85.051 658.5 85.949 658.5 89.699 c 658.5 93.602
 657.301 94.648 652.5 95.102 c 648.75 95.477 l 648.75 83.25 l 650.926 83.25
 l 652.125 83.25 654.074 83.625 655.273 84.074 c h
655.273 84.074 m f
730.5 62.102 m 730.5 62.625 738.074 85.273 742.125 96.898 c 743.398 100.5
 l 747.375 100.5 l 749.852 100.5 751.648 100.125 752.176 99.449 c 752.852
 98.625 765 63.523 765 62.477 c 765 62.324 763.125 62.25 760.875 62.25 c
 756.824 62.25 l 755.398 66.898 l 754.051 71.625 l 747.676 71.852 l 741.375
 72.074 l 739.875 66.977 l 738.375 61.875 l 734.398 61.648 l 732.301 61.5
 730.5 61.727 730.5 62.102 c h
752.25 78.676 m 752.25 79.574 748.5 91.648 747.898 92.551 c 747.676 92.926
 746.699 90.602 745.801 87.301 c 742.801 76.949 742.574 78 747.75 78 c 750.227
 78 752.25 78.301 752.25 78.676 c h
752.25 78.676 m f
863.852 61.949 m 862.875 62.25 862.5 63.148 862.5 64.949 c 862.5 68.625
 862.5 68.625 867.074 68.398 c 870.074 68.176 871.426 68.398 872.176 69.227
 c 872.852 70.125 873.074 74.324 873 85.426 c 872.926 100.5 l 881.25 100.5
 l 881.25 84.523 l 881.25 67.5 881.023 66.227 877.352 63.523 c 875.398 62.023
 866.852 61.051 863.852 61.949 c h
863.852 61.949 m f
899.773 62.551 m 893.551 64.801 890.852 69.449 890.398 79.051 c 889.648
 94.426 894.523 101.25 906.301 101.25 c 910.801 101.25 915.898 99 918 96
 c 921.898 90.523 922.801 77.324 919.648 70.352 c 916.199 62.773 908.102
 59.625 899.773 62.551 c h
908.926 67.875 m 912 69.375 913.5 73.801 913.5 80.926 c 913.5 88.801 912.977
 91.125 910.5 93.75 c 906.977 97.5 902.25 96.449 899.477 91.273 c 897.523
 87.602 897.676 74.699 899.699 71.176 c 901.125 68.699 903.824 66.75 905.852
 66.75 c 906.375 66.75 907.801 67.273 908.926 67.875 c h
908.926 67.875 m f
538.875 63.227 m 538.648 63.75 538.574 72.449 538.648 82.5 c 538.875 100.875
 l 562.125 100.875 l 562.352 97.648 l 562.574 94.5 l 546.75 94.5 l 546.75
 85.5 l 561.75 85.5 l 561.75 78.75 l 546.75 78.75 l 546.75 69 l 562.5 69
 l 562.5 62.25 l 550.875 62.25 l 542.102 62.25 539.102 62.477 538.875 63.227
 c h
538.875 63.227 m f
699.523 84.074 m 695.551 96.148 692.324 106.125 692.551 106.273 c 692.699
 106.426 693.977 106.727 695.398 106.949 c 700.051 107.699 701.25 105.75
 706.574 88.727 c 709.199 80.398 711.523 73.727 711.75 73.875 c 711.977 
74.023 714.523 81.602 717.375 90.676 c 722.625 107.25 l 726.523 107.25 l
 728.699 107.25 730.5 107.023 730.5 106.801 c 730.5 106.5 727.273 96.375
 723.227 84.301 c 716.023 62.25 l 706.875 62.25 l h
699.523 84.074 m f
771.75 81.824 m 771.75 101.398 l 773.477 100.949 l 774.375 100.727 776.023
 100.5 777.227 100.5 c 779.25 100.5 l 779.25 68.102 l 786.602 68.398 l 793.875
 68.625 l 794.102 65.398 l 794.324 62.25 l 771.75 62.25 l h
771.75 81.824 m f
801.75 81.301 m 801.75 95.852 801.977 100.426 802.727 100.648 c 803.176
 100.875 805.051 100.875 806.852 100.648 c 810 100.352 l 810 68.102 l 824.102
 68.852 l 824.551 66.602 l 825.449 62.023 825.977 62.25 813.375 62.25 c 
801.75 62.25 l h
801.75 81.301 m f
831.898 81.523 m 832.125 100.875 l 855.375 100.875 l 855.602 97.648 l 855.824
 94.5 l 840 94.5 l 840 85.5 l 854.25 85.5 l 854.25 78.75 l 840 78.75 l 840
 69 l 846.977 68.926 l 850.727 68.852 854.324 68.852 854.852 68.926 c 855.449
 69 855.75 67.949 855.75 65.625 c 855.75 62.25 l 831.75 62.25 l h
831.898 81.523 m f
551.551 104.773 m 551.773 105.523 552.301 107.551 552.75 109.273 c 553.5
 112.273 553.648 112.352 556.875 112.648 c 558.75 112.801 560.25 112.648
 560.25 112.352 c 560.25 112.051 559.352 109.949 558.227 107.625 c 556.352
 103.875 555.977 103.5 553.648 103.5 c 551.625 103.5 551.25 103.727 551.551
 104.773 c h
551.551 104.773 m f
508.5 128.625 m 504.602 129.824 500.852 133.5 499.574 137.176 c 499.051
 138.824 498.75 146.773 498.75 159.449 c 498.75 179.25 l 507.75 179.25 l
 507.75 139.352 l 509.926 137.176 l 511.727 135.375 512.773 135 515.625 
135 c 518.477 135 519.523 135.375 521.324 137.176 c 523.5 139.352 l 523.5
 179.25 l 532.574 179.25 l 532.352 158.023 l 532.125 137.773 532.051 136.801
 530.477 134.25 c 528 130.273 523.727 128.176 517.273 127.801 c 513.824 
127.648 510.676 127.875 508.5 128.625 c h
508.5 128.625 m f
747.227 128.25 m 741.75 129.375 741.227 129.977 741.227 134.625 c 741.227
 136.875 741.523 138.75 741.824 138.75 c 742.199 138.75 743.852 137.852 
745.426 136.801 c 752.102 132.449 760.5 133.949 760.5 139.5 c 760.5 141.977
 757.051 145.273 751.426 148.125 c 746.699 150.523 742.125 154.727 741.148
 157.352 c 740.176 160.199 740.773 165 742.426 167.25 c 745.574 171.523 
752.852 173.324 762.301 172.199 c 766.5 171.676 l 766.5 167.477 l 766.5 
163.875 766.352 163.426 765.227 163.875 c 761.852 165.227 755.25 165.977
 752.852 165.301 c 750.898 164.699 750.301 164.102 750.148 162.449 c 749.773
 159.676 751.352 158.102 758.102 154.426 c 767.926 148.949 771.301 143.852
 769.5 137.102 c 767.477 129.676 758.398 126.074 747.227 128.25 c h
747.227 128.25 m f
546 150 m 546 171.75 l 550.801 171.75 l 556.727 171.75 556.273 172.273 
564.75 156.074 c 571.125 143.852 l 571.352 157.801 l 571.5 171.75 l 579.75
 171.75 l 579.75 128.25 l 570.375 128.25 l 563.699 141.148 l 553.199 161.477
 554.25 161.176 554.25 143.398 c 554.25 128.25 l 546 128.25 l h
546 150 m f
593.25 150 m 593.25 171.75 l 602.25 171.75 l 602.25 128.25 l 593.25 128.25
 l h
593.25 150 m f
619.352 150 m 612.148 171.75 l 616.051 171.75 l 618.898 171.75 620.324 
171.375 621.148 170.398 c 621.75 169.727 624.227 162.898 626.551 155.25 
c 628.949 147.602 631.125 141.148 631.426 140.852 c 631.727 140.551 634.273
 147.375 637.125 156 c 642.301 171.75 l 646.727 171.75 l 649.949 171.75 
651.074 171.523 650.852 170.773 c 650.625 170.324 647.324 160.5 643.426 
149.102 c 636.375 128.25 l 626.625 128.25 l h
619.352 150 m f
660.75 150 m 660.75 171.75 l 687 171.75 l 687 165 l 669.75 165 l 669.75
 154.574 l 677.852 154.352 l 685.875 154.125 l 686.102 150.898 l 686.324
 147.75 l 669.75 147.75 l 669.75 135 l 687.75 135 l 687.75 128.25 l 660.75
 128.25 l h
660.75 150 m f
699.75 150 m 699.75 171.75 l 709.352 171.75 l 717.074 171.75 719.477 171.449
 722.023 170.324 c 728.926 167.176 730.125 156 724.051 151.875 c 721.801
 150.301 l 723.824 148.273 l 725.398 146.699 726.227 144.676 727.5 138.977
 c 728.398 134.926 729.301 130.875 729.523 129.898 c 729.898 128.324 729.676
 128.25 725.398 128.25 c 720.977 128.25 l 719.625 134.773 l 717.676 144.824
 716.625 146.25 711.301 146.25 c 708.75 146.25 l 708.75 128.25 l 699.75 
128.25 l h
714.898 153.301 m 717.977 153.977 719.25 155.699 719.25 159.449 c 719.25
 164.023 717.449 165.75 712.5 165.75 c 708.75 165.75 l 708.75 159.449 l 
708.75 152.023 708.676 152.023 714.898 153.301 c h
714.898 153.301 m f
781.5 150 m 781.5 171.75 l 789.75 171.75 l 789.75 128.25 l 781.5 128.25
 l h
781.5 150 m f
804.75 150 m 804.75 171.75 l 812.852 171.75 l 822.602 171.75 825.75 170.926
 829.574 167.477 c 833.324 164.023 834.75 159.449 834.75 150.375 c 834.75
 141.375 833.25 136.199 829.5 132.676 c 825.898 129.227 822 128.25 812.324
 128.25 c 804.75 128.25 l h
822.898 137.176 m 825.074 139.949 825.898 144.602 825.602 152.25 c 825.074
 162.602 823.727 164.699 816.676 165.523 c 813 165.977 l 813 134.852 l 817.273
 135.148 l 820.5 135.449 821.852 135.898 822.898 137.176 c h
822.898 137.176 m f
841.875 129.523 m 842.176 130.273 844.949 138.301 848.023 147.375 c 851.102
 156.449 854.324 165.824 855.148 168.148 c 856.648 172.5 l 860.25 172.5 
l 862.574 172.5 864.375 172.051 865.352 171.148 c 866.324 170.324 869.25
 162.824 873.676 149.773 c 877.426 138.676 880.5 129.301 880.5 128.926 c
 880.5 128.477 878.625 128.25 876.227 128.398 c 872.023 128.625 l 870.148
 134.102 l 868.352 139.574 l 861.148 139.352 l 854.023 139.125 l 852.148
 133.648 l 850.352 128.25 l 845.852 128.25 l 841.875 128.25 841.426 128.398
 841.875 129.523 c h
866.25 146.773 m 866.25 147.148 865.125 150.898 863.699 155.25 c 861.227
 163.125 l 858.824 155.551 l 857.551 151.352 856.5 147.602 856.5 147.074
 c 856.5 146.551 858.227 146.25 861.375 146.25 c 864.074 146.25 866.25 146.477
 866.25 146.773 c h
866.25 146.773 m f
890.25 150 m 890.25 171.75 l 898.727 171.75 l 908.852 171.75 913.199 170.551
 916.426 166.801 c 919.574 163.273 920.625 159.074 920.625 150 c 920.625
 140.852 919.648 137.477 915.977 133.426 c 912.449 129.523 907.949 128.25
 897.977 128.25 c 890.25 128.25 l h
908.25 137.023 m 910.125 138.75 910.727 140.102 911.324 144 c 912.227 149.699
 911.625 158.398 910.051 161.477 c 908.773 163.875 905.023 165.75 901.5 
165.75 c 899.25 165.75 l 899.25 135 l 902.625 135 l 905.25 135 906.449 135.449
 908.25 137.023 c h
908.25 137.023 m f
701.25 204.523 m 674.551 206.926 656.324 218.926 645.375 241.125 c 633.898
 264.375 632.102 300.148 641.023 327.375 c 645.227 340.199 653.477 353.773
 661.352 360.824 c 669.602 368.176 679.648 373.199 690.523 375.449 c 698.477
 377.102 714.227 376.5 722.551 374.25 c 732.676 371.551 739.125 367.949 
745.875 361.125 c 754.875 352.199 758.926 343.051 760.199 329.023 c 760.648
 323.25 l 742.426 323.398 l 724.125 323.625 l 723.977 326.477 l 723.602 
330.523 721.125 336.676 718.5 339.898 c 711.977 347.773 698.023 348.148 
688.199 340.648 c 680.773 335.102 674.773 322.949 672.301 308.699 c 670.648
 299.398 671.25 279.301 673.426 269.625 c 675.523 260.324 680.699 250.051
 685.875 244.875 c 694.727 236.023 707.852 232.875 722.852 235.949 c 733.051
 238.051 744.75 244.727 750.977 252.074 c 752.398 253.648 753.75 255 754.125
 255 c 754.426 255 754.574 247.574 754.352 238.5 c 753.977 221.926 l 751.801
 219.676 l 746.25 213.898 734.625 208.199 723.75 206.023 c 718.051 204.824
 706.125 204.074 701.25 204.523 c h
701.25 204.523 m f
823.273 222.898 m 820.199 232.125 807.523 269.926 795.074 306.977 c 772.574
 374.398 l 785.102 374.023 l 792.074 373.875 798.898 373.352 800.551 372.824
 c 803.926 371.699 810.227 366.148 811.426 363.148 c 811.801 362.023 819.824
 337.125 829.199 307.875 c 838.574 278.551 846.449 254.398 846.676 254.102
 c 846.898 253.801 856.051 280.727 867 313.949 c 886.875 374.25 l 921.676
 374.25 l 917.324 361.727 l 914.926 354.75 902.023 316.949 888.676 277.727
 c 864.375 206.25 l 828.898 206.25 l h
823.273 222.898 m f
0.898039 0.0941176 0.215686 rg
265.5 36.074 m 263.25 37.352 259.199 39.602 256.5 41.102 c 239.102 50.699
 214.875 66.449 198.227 78.824 c 155.699 110.699 130.426 142.051 125.25 
169.5 c 124.648 172.648 124.199 300.375 124.5 382.199 c 124.5 383.773 124.727
 383.699 134.852 380.926 c 218.551 357.449 308.625 356.176 393.375 377.324
 c 403.648 379.875 407.926 381.074 416.477 383.699 c 417.676 384.074 417.75
 383.023 417.75 368.324 c 417.75 359.625 417.676 352.5 417.602 352.5 c 417.449
 352.5 411.824 351.449 405.074 350.25 c 388.5 347.176 368.699 344.625 350.625
 343.051 c 327.227 341.102 285.375 341.324 266.625 343.5 c 263.324 343.875
 257.25 344.551 253.125 345 c 213.074 349.574 164.324 363.227 134.023 378.523
 c 127.352 381.824 128.102 380.773 136.273 375.227 c 167.699 353.773 204.977
 339.676 259.875 328.199 c 281.773 323.625 305.102 320.176 321.75 319.125
 c 325.648 318.824 329.699 318.449 330.75 318.301 c 331.801 318.148 342.074
 317.773 353.625 317.551 c 372.602 317.102 397.426 317.852 412.727 319.273
 c 417.824 319.727 l 417.602 245.551 l 417.375 171.375 l 415.648 165.449
 l 411 148.949 400.801 132.148 386.023 116.625 c 379.574 109.875 l 379.5
 202.648 l 379.5 295.5 l 373.352 295.5 l 369.898 295.5 360.074 296.023 351.375
 296.625 c 258.898 303.148 177.898 332.176 133.648 374.551 c 128.852 379.199
 127.273 380.324 126.523 379.574 c 125.25 378.301 127.875 371.25 135.074
 356.551 c 145.273 335.625 157.949 318.227 176.25 300 c 192.523 283.727 
211.727 268.949 231.375 257.625 c 239.477 252.898 261.449 241.875 267.148
 239.551 c 270.75 238.125 l 270.75 135.898 l 270.75 79.727 270.523 33.75
 270.227 33.75 c 269.852 33.75 267.75 34.801 265.5 36.074 c h
265.5 36.074 m f
306 154.801 m 306 256.426 l 303.227 256.875 l 233.477 268.273 174.676 304.426
 139.199 357.75 c 133.648 366.074 126.75 378 126.824 379.125 c 126.824 379.5
 127.426 379.051 128.102 378 c 135.602 367.199 152.102 350.176 165.375 339.449
 c 175.051 331.727 191.25 320.852 202.875 314.398 c 239.398 294.074 287.102
 279.75 335.852 274.426 c 344.25 273.523 l 344.25 176.324 l 344.176 79.125
 l 340.875 76.648 l 336 73.125 320.25 62.398 312.602 57.449 c 306 53.25 
l h
306 154.801 m f
543.75 204.449 m 524.176 206.852 510 215.773 503.324 229.727 c 501.676 
233.102 499.949 237.523 499.426 239.625 c 498.676 242.477 498.449 259.199
 498.227 308.852 c 497.926 374.25 l 514.648 374.102 l 531.375 373.875 l 
531.523 313.125 l 531.602 279.676 531.824 250.801 532.125 248.926 c 532.648
 244.574 536.102 239.102 539.926 236.551 c 549.824 230.023 566.926 232.426
 572.926 241.199 c 576.75 246.75 576.676 245.102 576.75 311.852 c 576.75
 374.25 l 593.477 374.102 l 610.125 373.875 l 610.125 309 l 610.125 236.699
 610.352 240.523 604.801 228.824 c 599.773 218.023 588.898 209.852 574.875
 206.25 c 568.949 204.75 550.199 203.625 543.75 204.449 c h
543.75 204.449 m f
1 g
0 229.875 m 0 459.75 l 1059 459.75 l 1059 0 l 0 0 l h
270.75 135.898 m 270.75 238.125 l 267.148 239.551 l 261.449 241.875 239.477
 252.898 231.375 257.625 c 211.727 268.949 192.523 283.727 176.25 300 c 
157.949 318.227 145.273 335.625 135.074 356.551 c 127.875 371.25 125.25 
378.301 126.523 379.574 c 127.273 380.324 128.852 379.199 133.648 374.551
 c 177.898 332.176 258.898 303.148 351.375 296.625 c 360.074 296.023 369.898
 295.5 373.352 295.5 c 379.5 295.5 l 379.5 202.648 l 379.574 109.875 l 386.023
 116.625 l 400.801 132.148 411 148.949 415.648 165.449 c 417.375 171.375
 l 417.602 245.551 l 417.824 319.727 l 412.727 319.273 l 397.426 317.852
 372.602 317.102 353.625 317.551 c 342.074 317.773 331.801 318.148 330.75
 318.301 c 329.699 318.449 325.648 318.824 321.75 319.125 c 305.102 320.176
 281.773 323.625 259.875 328.199 c 204.977 339.676 167.699 353.773 136.273
 375.227 c 128.102 380.773 127.352 381.824 134.023 378.523 c 164.324 363.227
 213.074 349.574 253.125 345 c 257.25 344.551 263.324 343.875 266.625 343.5
 c 285.375 341.324 327.227 341.102 350.625 343.051 c 368.699 344.625 388.5
 347.176 405.074 350.25 c 411.824 351.449 417.449 352.5 417.602 352.5 c 
417.676 352.5 417.75 359.625 417.75 368.324 c 417.75 383.023 417.676 384.074
 416.477 383.699 c 407.926 381.074 403.648 379.875 393.375 377.324 c 308.625
 356.176 218.551 357.449 134.852 380.926 c 124.727 383.699 124.5 383.773
 124.5 382.199 c 124.199 300.375 124.648 172.648 125.25 169.5 c 130.426 
142.051 155.699 110.699 198.227 78.824 c 214.875 66.449 239.102 50.699 256.5
 41.102 c 259.199 39.602 263.25 37.352 265.5 36.074 c 267.75 34.801 269.852
 33.75 270.227 33.75 c 270.523 33.75 270.75 79.727 270.75 135.898 c h
328.273 67.949 m 333.375 71.398 339 75.301 340.875 76.648 c 344.176 79.125
 l 344.25 176.324 l 344.25 273.523 l 335.852 274.426 l 258.449 282.898 192
 311.477 148.051 355.125 c 140.102 363 132.301 372 128.102 378 c 125.398
 381.898 126.898 378 130.574 371.625 c 165.676 310.199 227.324 269.25 303.227
 256.875 c 306 256.426 l 306 53.25 l 312.602 57.449 l 316.199 59.773 323.25
 64.5 328.273 67.949 c h
525.523 63.449 m 528.301 64.801 528.375 65.023 528.602 69.148 c 528.75 
71.551 528.676 73.5 528.523 73.5 c 528.301 73.5 526.648 72.676 524.926 71.625
 c 518.625 68.023 510.898 69.676 508.051 75.148 c 504.977 81.148 506.324
 93.602 510.449 97.727 c 514.051 101.324 519.824 100.125 520.949 95.551 
c 521.398 93.898 521.773 93.75 525.75 93.75 c 528.227 93.75 530.324 94.051
 530.551 94.352 c 531.301 95.625 529.352 100.574 527.102 103.125 c 521.176
 109.949 507.148 108.824 501.676 101.102 c 497.551 95.324 496.125 84 498.449
 75.602 c 500.102 69.676 504.977 64.199 509.852 62.625 c 514.352 61.199 
521.699 61.574 525.523 63.449 c h
588.227 62.324 m 589.875 62.773 592.352 64.273 593.852 65.625 c 596.477
 67.949 596.625 68.398 596.625 72.523 c 596.625 78.074 594.977 80.551 588.75
 84 c 582.227 87.676 579.75 89.852 579.75 91.875 c 579.75 94.727 584.176
 95.398 590.477 93.449 c 594 92.398 l 594 96.375 l 594 100.199 593.926 100.352
 591.676 100.801 c 588.148 101.477 581.176 101.324 578.324 100.5 c 575.023
 99.602 571.727 96.375 571.125 93.602 c 569.852 87.977 572.551 83.773 580.352
 79.426 c 587.926 75.148 589.727 72.301 586.727 69.375 c 584.852 67.426 
578.625 68.176 574.875 70.727 c 571.875 72.75 l 571.648 68.551 l 571.5 66.227
 571.574 64.125 571.801 63.898 c 572.625 63.148 579.449 61.574 582.375 61.574
 c 584.023 61.5 586.648 61.875 588.227 62.324 c h
610.125 66.977 m 611.625 72.074 l 617.926 71.852 l 624.148 71.625 l 625.648
 66.898 l 627.074 62.25 l 631.125 62.25 l 633.375 62.25 635.25 62.398 635.25
 62.551 c 635.25 63.602 622.949 98.773 622.273 99.602 c 621.75 100.199 620.102
 100.5 617.398 100.352 c 613.273 100.125 l 606.977 81.375 l 603.523 71.102
 600.75 62.398 600.75 62.023 c 600.75 61.727 602.551 61.5 604.648 61.648
 c 608.625 61.875 l h
667.5 63.148 m 667.426 69 663.449 81 661.574 81 c 661.199 81 662.023 82.125
 663.449 83.551 c 665.699 85.801 666 86.551 666 90.227 c 666 93.227 665.625
 94.801 664.426 96.301 c 661.648 99.824 659.324 100.5 649.875 100.5 c 641.25
 100.5 l 641.25 62.25 l 649.5 62.25 l 649.5 78.227 l 652.273 77.773 l 655.727
 77.176 656.625 76.051 657.75 71.023 c 660.074 60.75 659.625 61.5 663.75
 61.5 c 667.125 61.5 667.5 61.648 667.5 63.148 c h
739.875 66.977 m 741.375 72.074 l 747.676 71.852 l 754.051 71.625 l 755.398
 66.898 l 756.824 62.25 l 760.875 62.25 l 763.125 62.25 765 62.324 765 62.477
 c 765 63.523 752.852 98.625 752.176 99.449 c 751.648 100.125 749.852 100.5
 747.375 100.5 c 743.398 100.5 l 742.125 96.898 l 738.074 85.273 730.5 62.625
 730.5 62.102 c 730.5 61.727 732.301 61.5 734.398 61.648 c 738.375 61.875
 l h
877.352 63.523 m 881.023 66.227 881.25 67.5 881.25 84.523 c 881.25 100.5
 l 872.926 100.5 l 873 85.426 l 873.074 74.324 872.852 70.125 872.176 69.227
 c 871.426 68.398 870.074 68.176 867.074 68.398 c 862.5 68.625 862.5 68.625
 862.5 64.949 c 862.5 61.801 863.25 61.5 870.227 61.801 c 873.898 62.023
 875.926 62.477 877.352 63.523 c h
911.324 62.324 m 919.574 65.102 923.773 77.102 920.699 89.176 c 919.199
 95.102 917.324 97.727 913.273 99.676 c 906.977 102.75 898.727 101.477 894.523
 96.824 c 891.148 93.074 889.949 87.898 890.398 79.051 c 890.773 72.074 
892.273 67.801 895.352 65.023 c 898.801 61.875 906.227 60.676 911.324 62.324
 c h
562.5 65.625 m 562.5 69 l 546.75 69 l 546.75 78.75 l 561.75 78.75 l 561.75
 85.5 l 546.75 85.5 l 546.75 94.5 l 562.574 94.5 l 562.352 97.648 l 562.125
 100.875 l 538.875 100.875 l 538.648 82.5 l 538.574 72.449 538.648 63.75
 538.875 63.227 c 539.102 62.477 542.102 62.25 550.875 62.25 c 562.5 62.25
 l h
723.227 84.301 m 727.273 96.375 730.5 106.5 730.5 106.801 c 730.5 107.023
 728.699 107.25 726.523 107.25 c 722.625 107.25 l 717.375 90.676 l 714.523
 81.602 711.977 74.023 711.75 73.875 c 711.523 73.727 709.199 80.398 706.574
 88.727 c 701.25 105.75 700.051 107.699 695.398 106.949 c 693.977 106.727
 692.699 106.426 692.551 106.273 c 692.324 106.125 695.551 96.148 699.523
 84.074 c 706.875 62.25 l 716.023 62.25 l h
794.102 65.398 m 793.875 68.625 l 786.602 68.398 l 779.25 68.102 l 779.25
 100.5 l 777.227 100.5 l 776.023 100.5 774.375 100.727 773.477 100.949 c
 771.75 101.398 l 771.75 62.25 l 794.324 62.25 l h
825 63.301 m 825 63.824 824.773 65.324 824.551 66.602 c 824.102 68.852 
l 810 68.102 l 810 100.352 l 806.852 100.648 l 805.051 100.875 803.176 100.875
 802.727 100.648 c 801.977 100.426 801.75 95.852 801.75 81.301 c 801.75 
62.25 l 813.375 62.25 l 822.75 62.25 825 62.477 825 63.301 c h
855.75 65.625 m 855.75 67.949 855.449 69 854.852 68.926 c 854.324 68.852
 850.727 68.852 846.977 68.926 c 840 69 l 840 78.75 l 854.25 78.75 l 854.25
 85.5 l 840 85.5 l 840 94.5 l 855.824 94.5 l 855.602 97.648 l 855.375 100.875
 l 832.125 100.875 l 831.898 81.523 l 831.75 62.25 l 855.75 62.25 l h
558.227 107.625 m 559.352 109.949 560.25 112.051 560.25 112.352 c 560.25
 112.648 558.75 112.801 556.875 112.648 c 553.648 112.352 553.5 112.273 
552.75 109.273 c 552.301 107.551 551.773 105.523 551.551 104.773 c 551.25
 103.727 551.625 103.5 553.648 103.5 c 555.977 103.5 556.352 103.875 558.227
 107.625 c h
525.75 129.824 m 527.477 130.801 529.574 132.75 530.477 134.25 c 532.051
 136.801 532.125 137.773 532.352 158.023 c 532.574 179.25 l 523.5 179.25
 l 523.5 139.352 l 521.324 137.176 l 519.523 135.375 518.477 135 515.625
 135 c 512.773 135 511.727 135.375 509.926 137.176 c 507.75 139.352 l 507.75
 179.25 l 498.75 179.25 l 498.75 159.449 l 498.75 146.773 499.051 138.824
 499.574 137.176 c 500.852 133.5 504.602 129.824 508.5 128.625 c 513.375
 127.051 521.852 127.648 525.75 129.824 c h
760.5 128.699 m 765.375 130.125 768.375 132.977 769.5 137.102 c 771.301
 143.852 767.926 148.949 758.102 154.426 c 751.352 158.102 749.773 159.676
 750.148 162.449 c 750.301 164.102 750.898 164.699 752.852 165.301 c 755.25
 165.977 761.852 165.227 765.227 163.875 c 766.352 163.426 766.5 163.875
 766.5 167.477 c 766.5 171.676 l 762.301 172.199 l 752.852 173.324 745.574
 171.523 742.426 167.25 c 740.773 165 740.176 160.199 741.148 157.352 c 
742.125 154.727 746.699 150.523 751.426 148.125 c 757.051 145.273 760.5 
141.977 760.5 139.5 c 760.5 133.949 752.102 132.449 745.426 136.801 c 743.852
 137.852 742.199 138.75 741.824 138.75 c 741.523 138.75 741.227 136.875 
741.227 134.625 c 741.227 129.977 741.75 129.375 747.227 128.25 c 752.25
 127.273 756.148 127.426 760.5 128.699 c h
554.25 143.398 m 554.25 161.176 553.199 161.477 563.699 141.148 c 570.375
 128.25 l 579.75 128.25 l 579.75 171.75 l 571.5 171.75 l 571.352 157.801
 l 571.125 143.852 l 564.75 156.074 l 556.273 172.273 556.727 171.75 550.801
 171.75 c 546 171.75 l 546 128.25 l 554.25 128.25 l h
602.25 150 m 602.25 171.75 l 593.25 171.75 l 593.25 128.25 l 602.25 128.25
 l h
643.426 149.102 m 647.324 160.5 650.625 170.324 650.852 170.773 c 651.074
 171.523 649.949 171.75 646.727 171.75 c 642.301 171.75 l 637.125 156 l 
634.273 147.375 631.727 140.551 631.426 140.852 c 631.125 141.148 628.949
 147.602 626.551 155.25 c 624.227 162.898 621.75 169.727 621.148 170.398
 c 620.324 171.375 618.898 171.75 616.051 171.75 c 612.148 171.75 l 619.352
 150 l 626.625 128.25 l 636.375 128.25 l h
687.75 131.625 m 687.75 135 l 669.75 135 l 669.75 147.75 l 686.324 147.75
 l 686.102 150.898 l 685.875 154.125 l 677.852 154.352 l 669.75 154.574 
l 669.75 165 l 687 165 l 687 171.75 l 660.75 171.75 l 660.75 128.25 l 687.75
 128.25 l h
708.75 137.25 m 708.75 146.25 l 711.301 146.25 l 716.625 146.25 717.676
 144.824 719.625 134.773 c 720.977 128.25 l 725.398 128.25 l 729.676 128.25
 729.898 128.324 729.523 129.898 c 729.301 130.875 728.398 134.926 727.5
 138.977 c 726.227 144.676 725.398 146.699 723.824 148.273 c 721.801 150.301
 l 724.051 151.875 l 730.125 156 728.926 167.176 722.023 170.324 c 719.477
 171.449 717.074 171.75 709.352 171.75 c 699.75 171.75 l 699.75 128.25 l
 708.75 128.25 l h
789.75 150 m 789.75 171.75 l 781.5 171.75 l 781.5 128.25 l 789.75 128.25
 l h
823.273 129.074 m 831.074 131.102 834.75 137.926 834.75 150.375 c 834.75
 159.449 833.324 164.023 829.574 167.477 c 825.75 170.926 822.602 171.75
 812.852 171.75 c 804.75 171.75 l 804.75 128.25 l 812.324 128.25 l 816.449
 128.25 821.398 128.625 823.273 129.074 c h
852.148 133.648 m 854.023 139.125 l 861.148 139.352 l 868.352 139.574 l
 870.148 134.102 l 872.023 128.625 l 876.227 128.398 l 878.625 128.25 880.5
 128.477 880.5 128.926 c 880.5 129.301 877.426 138.676 873.676 149.773 c
 869.25 162.824 866.324 170.324 865.352 171.148 c 864.375 172.051 862.574
 172.5 860.25 172.5 c 856.648 172.5 l 855.148 168.148 l 854.324 165.824 
851.102 156.449 848.023 147.375 c 844.949 138.301 842.176 130.273 841.875
 129.523 c 841.426 128.398 841.875 128.25 845.852 128.25 c 850.352 128.25
 l h
909.523 129.375 m 913.949 130.727 918 134.625 919.574 139.199 c 920.852
 142.949 920.926 156.824 919.648 161.102 c 917.25 168.977 911.926 171.75
 898.727 171.75 c 890.25 171.75 l 890.25 128.25 l 897.977 128.25 l 902.699
 128.25 907.199 128.699 909.523 129.375 c h
574.875 206.25 m 588.898 209.852 599.773 218.023 604.801 228.824 c 610.352
 240.523 610.125 236.699 610.125 309 c 610.125 373.875 l 593.477 374.102
 l 576.75 374.25 l 576.75 311.852 l 576.676 245.102 576.75 246.75 572.926
 241.199 c 566.926 232.426 549.824 230.023 539.926 236.551 c 536.102 239.102
 532.648 244.574 532.125 248.926 c 531.824 250.801 531.602 279.676 531.523
 313.125 c 531.375 373.875 l 514.648 374.102 l 497.926 374.25 l 498.227 
308.852 l 498.449 259.199 498.676 242.477 499.426 239.625 c 499.949 237.523
 501.676 233.102 503.324 229.727 c 510 215.773 524.176 206.852 543.75 204.449
 c 550.199 203.625 568.949 204.75 574.875 206.25 c h
723.75 206.023 m 734.625 208.199 746.25 213.898 751.801 219.676 c 753.977
 221.926 l 754.352 238.5 l 754.574 247.574 754.426 255 754.125 255 c 753.75
 255 752.398 253.648 750.977 252.074 c 744.75 244.727 733.051 238.051 722.852
 235.949 c 707.852 232.875 694.727 236.023 685.875 244.875 c 680.699 250.051
 675.523 260.324 673.426 269.625 c 671.25 279.301 670.648 299.398 672.301
 308.699 c 674.773 322.949 680.773 335.102 688.199 340.648 c 698.023 348.148
 711.977 347.773 718.5 339.898 c 721.125 336.676 723.602 330.523 723.977
 326.477 c 724.125 323.625 l 742.426 323.398 l 760.648 323.25 l 760.199 
329.023 l 758.926 343.051 754.875 352.199 745.875 361.125 c 739.125 367.949
 732.676 371.551 722.551 374.25 c 714.227 376.5 698.477 377.102 690.523 
375.449 c 670.875 371.398 655.801 359.324 646.199 339.977 c 638.25 323.852
 634.5 303.977 635.551 283.5 c 637.574 243.824 653.699 217.949 682.5 208.125
 c 694.125 204.148 710.477 203.324 723.75 206.023 c h
888.676 277.727 m 902.023 316.949 914.926 354.75 917.324 361.727 c 921.676
 374.25 l 886.875 374.25 l 867 313.949 l 856.051 280.727 846.898 253.801
 846.676 254.102 c 846.449 254.398 838.574 278.551 829.199 307.875 c 819.824
 337.125 811.801 362.023 811.426 363.148 c 810.227 366.148 803.926 371.699
 800.551 372.824 c 798.898 373.352 792.074 373.875 785.102 374.023 c 772.574
 374.398 l 795.074 306.977 l 807.523 269.926 820.199 232.125 823.273 222.898
 c 828.898 206.25 l 864.375 206.25 l h
888.676 277.727 m f
613.801 79.273 m 614.023 80.023 614.926 83.398 615.824 86.852 c 616.727
 90.227 617.773 92.773 618.074 92.477 c 618.602 91.875 622.5 79.648 622.5
 78.523 c 622.5 78.227 620.477 78 617.926 78 c 613.949 78 613.426 78.148
 613.801 79.273 c h
613.801 79.273 m f
648.75 89.324 m 648.75 95.477 l 652.5 95.102 l 654.523 94.875 656.699 94.273
 657.375 93.75 c 658.574 92.773 658.949 87.375 657.898 85.727 c 657.148 
84.523 653.625 83.25 650.926 83.25 c 648.75 83.25 l h
648.75 89.324 m f
743.625 79.648 m 745.352 86.398 747.602 93.148 747.898 92.551 c 748.5 91.648
 752.25 79.574 752.25 78.676 c 752.25 78.301 750.227 78 747.75 78 c 743.398
 78 743.25 78.074 743.625 79.648 c h
743.625 79.648 m f
903.074 67.727 m 899.477 69.523 898.199 73.051 898.199 81.301 c 898.199
 87 898.5 89.477 899.477 91.273 c 902.25 96.449 906.977 97.5 910.5 93.75
 c 912.977 91.125 913.5 88.801 913.5 80.926 c 913.5 73.801 912 69.375 908.926
 67.875 c 906.375 66.523 905.398 66.523 903.074 67.727 c h
903.074 67.727 m f
709.727 152.773 m 709.051 153 708.75 155.023 708.75 159.449 c 708.75 165.75
 l 712.5 165.75 l 717.449 165.75 719.25 164.023 719.25 159.449 c 719.25 
154.875 718.199 153.898 711.75 152.699 c 711.148 152.625 710.176 152.625
 709.727 152.773 c h
709.727 152.773 m f
813 150.375 m 813 165.977 l 816.676 165.523 l 821.102 165 823.051 163.875
 824.324 161.324 c 825.602 158.625 826.125 145.801 825.074 141.977 c 823.727
 136.949 822.148 135.602 817.273 135.148 c 813 134.852 l h
813 150.375 m f
856.5 147.074 m 856.5 147.602 857.551 151.352 858.824 155.551 c 861.227
 163.125 l 863.699 155.25 l 865.125 150.898 866.25 147.148 866.25 146.773
 c 866.25 146.477 864.074 146.25 861.375 146.25 c 858.227 146.25 856.5 146.551
 856.5 147.074 c h
856.5 147.074 m f
899.25 150.375 m 899.25 165.75 l 901.5 165.75 l 905.023 165.75 908.773 
163.875 910.051 161.477 c 911.625 158.398 912.227 149.699 911.324 144 c 
910.273 137.699 907.727 135 902.625 135 c 899.25 135 l h
899.25 150.375 m f
Q Q
showpage
%%Trailer
end restore
%%EOF
